[
  {
    "name": "Institudo de Matemática e Estatística",
    "tag": "IME",
    "donate": "Dinheiro",
    "user": "Pessoa Física",
    "description": "Criado em 1970, o Instituto de Matemática e Estatística reúne os docentes de matemática, estatística e ciência da computação. Anualmente, 350 novos integrantes são recebidos pelo IME.",
    "items": [
      "Doações em dinheiro podem ser direcionadas para a aquisição de livros e atualização das bibliotecas, bem como de equipamentos para os laboratórios e as salas de aula"
    ],
    "image": "https://jornal.usp.br/wp-content/uploads/2018/05/19092013fachadaimefotomarcossantos003.jpg",
    "id": "DIF"
  },

  {
    "name": "Institudo de Matemática e Estatística",
    "tag": "IME",
    "donate": "Dinheiro",
    "user": "Pessoa Jurídica",
    "description": "Criado em 1970, o Instituto de Matemática e Estatística reúne os docentes de matemática, estatística e ciência da computação. Anualmente, 350 novos integrantes são recebidos pelo IME.",
    "items": [
      "Doações em dinheiro podem ser direcionadas para a aquisição de livros e atualização das bibliotecas, bem como de equipamentos para os laboratórios e as salas de aula",
      "Contrapartidas: as empresas interessadas podem propor formas de agradecimento como a inclusão de placas na frente das salas ou laboratórios que receberem doações acima dos R$ 5 mil reais"
    ],
    "image": "https://jornal.usp.br/wp-content/uploads/2018/05/19092013fachadaimefotomarcossantos003.jpg",
    "id": "DIJ"
  },

  {
    "name": "Institudo de Matemática e Estatística",
    "tag": "IME",
    "donate": "Bens",
    "user": "Pessoa Física",
    "description": "Criado em 1970, o Instituto de Matemática e Estatística reúne os docentes de matemática, estatística e ciência da computação. Anualmente, 350 novos integrantes são recebidos pelo IME.",
    "items": [
      "Doações de livros e equipamentos ajudam a atualizar biblioteca, bem como os equipamentos para os laboratórios e as salas de aula      "
    ],
    "image": "https://jornal.usp.br/wp-content/uploads/2018/05/19092013fachadaimefotomarcossantos003.jpg",
    "id": "BIF"
  },

  {
    "name": "Institudo de Matemática e Estatística",
    "tag": "IME",
    "donate": "Bens",
    "user": "Pessoa Jurídica",
    "description": "Criado em 1970, o Instituto de Matemática e Estatística reúne os docentes de matemática, estatística e ciência da computação. Anualmente, 350 novos integrantes são recebidos pelo IME.",
    "items": [
      "Doações de livros para a atualização das bibliotecas, bem como de equipamentos para os laboratórios e as salas de aula",
      "Contrapartidas: as empresas interessadas podem propor formas de agradecimento como a inclusão de placas na frente das salas ou dos laboratórios que receberem doações acima dos R$ 5 mil reais"
    ],
    "image": "https://jornal.usp.br/wp-content/uploads/2018/05/19092013fachadaimefotomarcossantos003.jpg",
    "id": "BIJ"
  },

  {
    "name": "Escola Politécnica",
    "tag": "EP",
    "donate": "Bens",
    "user": "Pessoa Jurídica",
    "description": "A Poli ocupa nove prédios na Cidade Universitária, em São Paulo, num total de 141.500 metros quadrados de área construída. Ali trabalham ou estudam 425  professores, 397  funcionários, 5.057 alunos de graduação e 1.549 alunos de pós-graduação (mais 1.149 Especiais).",
    "items": [
      "Doações em dinheiro podem ser direcionadas para a aquisição de livros e atualização das bibliotecas, bem como de equipamentos para os laboratórios e as salas de aula"
    ],
    "image": "https://i.ytimg.com/vi/N_oQe9Du0Pg/maxresdefault.jpg",
    "id": "DPF"
  },

  {
    "name": "Escola Politécnica",
    "tag": "EP",
    "donate": "Dinheiro",
    "user": "Pessoa Jurídica",
    "description": "A Poli ocupa nove prédios na Cidade Universitária, em São Paulo, num total de 141.500 metros quadrados de área construída. Ali trabalham ou estudam 425  professores, 397  funcionários, 5.057 alunos de graduação e 1.549 alunos de pós-graduação (mais 1.149 Especiais).",
    "items": [
      "Doações em dinheiro podem ser direcionadas para a aquisição de livros e atualização das bibliotecas, bem como de equipamentos para os laboratórios e as salas de aula",
      "Contrapartidas: as empresas interessadas podem propor formas de agradecimento como a inclusão de placas na frente das salas ou laboratórios que receberem doações acima dos R$ 5 mil reais"
    ],
    "image": "https://i.ytimg.com/vi/N_oQe9Du0Pg/maxresdefault.jpg",
    "id": "DPJ"
  },

  {
    "name": "Escola Politécnica",
    "tag": "EP",
    "donate": "Bens",
    "user": "Pessoa Física",
    "description": "A Poli ocupa nove prédios na Cidade Universitária, em São Paulo, num total de 141.500 metros quadrados de área construída. Ali trabalham ou estudam 425  professores, 397  funcionários, 5.057 alunos de graduação e 1.549 alunos de pós-graduação (mais 1.149 Especiais).",
    "items": [
      "Doações de livros e equipamentos ajudam a atualizar biblioteca, bem como os equipamentos para os laboratórios e as salas de aula"
    ],
    "image": "https://i.ytimg.com/vi/N_oQe9Du0Pg/maxresdefault.jpg",
    "id": "BPF"
  },

  {
    "name": "Escola Politécnica",
    "tag": "EP",
    "donate": "Bens",
    "user": "Pessoa Jurídica",
    "description": "A Poli ocupa nove prédios na Cidade Universitária, em São Paulo, num total de 141.500 metros quadrados de área construída. Ali trabalham ou estudam 425  professores, 397  funcionários, 5.057 alunos de graduação e 1.549 alunos de pós-graduação (mais 1.149 Especiais).",
    "items": [
      "Doações de livros para a atualização das bibliotecas, bem como de equipamentos para os laboratórios e as salas de aula",
      "Contrapartidas: as empresas interessadas podem propor formas de agradecimento como a inclusão de placas na frente das salas ou dos laboratórios que receberem doações acima dos R$ 5 mil reais"
    ],
    "image": "https://i.ytimg.com/vi/N_oQe9Du0Pg/maxresdefault.jpg",
    "id": "BPJ"
  },

  {
    "name": "Faculdade de Arquitetura e Urbanismo",
    "tag": "FAU",
    "donate": "Dinheiro",
    "user": "Pessoa Física",
    "description": "A  Faculdade de Arquitetura e Urbanismo se tornou uma das principais representantes da arquitetura modernista do país - se destacando nos usos do concreto bruto, do vidro e da simplicidade de suas linhas. Em 1981, o Edifício Vilanova Artigas, nome original do prédio, foi tombado pelo patrimônio histórico pela motivação de que ele desempenha o processo de valorização de exemplares da arquitetura contemporânea.",
    "items": [
      "Doações em dinheiro podem ser direcionadas para a aquisição de livros e atualização das bibliotecas, bem como de equipamentos para os laboratórios e as salas de aula"
    ],
    "image": "https://mir-s3-cdn-cf.behance.net/project_modules/max_1200/0ed18d70318819.5b9fe3b0a4cdd.jpg",
    "id": "DFF"
  },

  {
    "name": "Faculdade de Arquitetura e Urbanismo",
    "tag": "FAU",
    "donate": "Dinheiro",
    "user": "Pessoa Jurídica",
    "description": "A  Faculdade de Arquitetura e Urbanismo se tornou uma das principais representantes da arquitetura modernista do país - se destacando nos usos do concreto bruto, do vidro e da simplicidade de suas linhas. Em 1981, o Edifício Vilanova Artigas, nome original do prédio, foi tombado pelo patrimônio histórico pela motivação de que ele desempenha o processo de valorização de exemplares da arquitetura contemporânea.",
    "items": [
      "Doações em dinheiro podem ser direcionadas para a aquisição de livros e atualização das bibliotecas, bem como de equipamentos para os laboratórios e as salas de aula",
      "Contrapartidas: as empresas interessadas podem propor formas de agradecimento como a inclusão de placas na frente das salas ou laboratórios que receberem doações acima dos R$ 5 mil reais"
    ],
    "image": "https://mir-s3-cdn-cf.behance.net/project_modules/max_1200/0ed18d70318819.5b9fe3b0a4cdd.jpg",
    "id": "DFJ"
  },

  {
    "name": "Faculdade de Arquitetura e Urbanismo",
    "tag": "FAU",
    "donate": "Bens",
    "user": "Pessoa Física",
    "description": "A  Faculdade de Arquitetura e Urbanismo se tornou uma das principais representantes da arquitetura modernista do país - se destacando nos usos do concreto bruto, do vidro e da simplicidade de suas linhas. Em 1981, o Edifício Vilanova Artigas, nome original do prédio, foi tombado pelo patrimônio histórico pela motivação de que ele desempenha o processo de valorização de exemplares da arquitetura contemporânea.",
    "items": [
      "Doações de livros e equipamentos ajudam a atualizar biblioteca, bem como os equipamentos para os laboratórios e as salas de aula"
    ],
    "image": "https://mir-s3-cdn-cf.behance.net/project_modules/max_1200/0ed18d70318819.5b9fe3b0a4cdd.jpg",
    "id": "BFF"
  },

  {
    "name": "Faculdade de Arquitetura e Urbanismo",
    "tag": "FAU",
    "donate": "Bens",
    "user": "Pessoa Jurídica",
    "description": "A  Faculdade de Arquitetura e Urbanismo se tornou uma das principais representantes da arquitetura modernista do país - se destacando nos usos do concreto bruto, do vidro e da simplicidade de suas linhas. Em 1981, o Edifício Vilanova Artigas, nome original do prédio, foi tombado pelo patrimônio histórico pela motivação de que ele desempenha o processo de valorização de exemplares da arquitetura contemporânea.",
    "items": [
      "Doações de livros para a atualização das bibliotecas, bem como de equipamentos para os laboratórios e as salas de aula",
      "Contrapartidas: as empresas interessadas podem propor formas de agradecimento como a inclusão de placas na frente das salas ou dos laboratórios que receberem doações acima dos R$ 5 mil reais"
    ],
    "image": "https://mir-s3-cdn-cf.behance.net/project_modules/max_1200/0ed18d70318819.5b9fe3b0a4cdd.jpg",
    "id": "BFJ"
  },

  {
    "name": "Hospital Universitário",
    "tag": "HU",
    "donate": "Dinheiro",
    "user": "Pessoa Física",
    "description": "O Hospital Universitário, além da importante função assistencial, tem como função primordial o ensino, envolvendo todas as unidades de ensino da área de saúde da Universidade de São de Paulo. Todos os alunos realizam suas disciplinas de práticas clínicas e cirúrgicas dentro do HU. Em média, anualmente recebe cerca de 2500 alunos e produzem cerca de 400 pesquisas.",
    "items": [
      "Doações em dinheiro podem ser direcionadas para a aquisição de livros e atualização das bibliotecas, bem como de equipamentos para os laboratórios, clínicas e as salas de aula"
    ],
    "image": "http://www.imagens.usp.br/wp-content/uploads/fachadahufotomarcossantos012.jpg",
    "id": "DHF"
  },

  {
    "name": "Hospital Universitário",
    "tag": "HU",
    "donate": "Dinheiro",
    "user": "Pessoa Jurídica",
    "description": "O Hospital Universitário, além da importante função assistencial, tem como função primordial o ensino, envolvendo todas as unidades de ensino da área de saúde da Universidade de São de Paulo. Todos os alunos realizam suas disciplinas de práticas clínicas e cirúrgicas dentro do HU. Em média, anualmente recebe cerca de 2500 alunos e produzem cerca de 400 pesquisas.",
    "items": [
      "Doações em dinheiro podem ser direcionadas para a aquisição de livros e atualização das bibliotecas, bem como de equipamentos para os laboratórios e as salas de aula",
      "Contrapartidas: as empresas interessadas podem propor formas de agradecimento como a inclusão de placas na frente das salas ou laboratórios que receberem doações acima dos R$ 5 mil reais"
    ],
    "image": "http://www.imagens.usp.br/wp-content/uploads/fachadahufotomarcossantos012.jpg",
    "id": "DHJ"
  },

  {
    "name": "Hospital Universitário",
    "tag": "HU",
    "donate": "Bens",
    "user": "Pessoa Física",
    "description": "O Hospital Universitário, além da importante função assistencial, tem como função primordial o ensino, envolvendo todas as unidades de ensino da área de saúde da Universidade de São de Paulo. Todos os alunos realizam suas disciplinas de práticas clínicas e cirúrgicas dentro do HU. Em média, anualmente recebe cerca de 2500 alunos e produzem cerca de 400 pesquisas.",
    "items": [
      "Doações em dinheiro podem ser direcionadas para a aquisição de livros e atualização das bibliotecas, bem como de equipamentos para os laboratórios, clínicas e as salas de aula"
    ],
    "image": "http://www.imagens.usp.br/wp-content/uploads/fachadahufotomarcossantos012.jpg",
    "id": "BHF"
  },

  {
    "name": "Hospital Universitário",
    "tag": "HU",
    "donate": "Bens",
    "user": "Pessoa Jurídica",
    "description": "O Hospital Universitário, além da importante função assistencial, tem como função primordial o ensino, envolvendo todas as unidades de ensino da área de saúde da Universidade de São de Paulo. Todos os alunos realizam suas disciplinas de práticas clínicas e cirúrgicas dentro do HU. Em média, anualmente recebe cerca de 2500 alunos e produzem cerca de 400 pesquisas.",
    "items": [
      "Doações de livros para a atualização das bibliotecas, bem como de equipamentos para os laboratórios, clínicas e as salas de aula",
      "Contrapartidas: as empresas interessadas podem propor formas de agradecimento como a inclusão de placas na frente das salas ou dos laboratórios que receberem doações acima dos R$ 5 mil reais"
    ],
    "image": "http://www.imagens.usp.br/wp-content/uploads/fachadahufotomarcossantos012.jpg",
    "id": "BHJ"
  },

  {
    "name": "Biblioteca Brasiliana",
    "tag": "BB",
    "donate": "Dinheiro",
    "user": "Pessoa Física",
    "description": "Aberta ao público em 2013, a Biblioteca Brasiliana Guita e José Mindlin foi criada em janeiro de 2005 para abrigar e integrar a coleção reunida ao longo de mais de oitenta anos pelo bibliófilo José Mindlin e sua esposa Guita. São cerca de 32 mil títulos que correspondem a 60 mil volumes aproximadamente.",
    "items": [
      "Doações em dinheiro podem ser direcionadas para a aquisição de livros e atualização das bibliotecas, bem como de equipamentos para os laboratórios e as salas de aula"
    ],
    "image": "https://images.adsttc.com/media/images/5747/e06a/e58e/cea2/7200/011b/slideshow/IMG_8933.jpg?1464328288",
    "id": "DBF"
  },

  {
    "name": "Biblioteca Brasiliana",
    "tag": "BB",
    "donate": "Dinheiro",
    "user": "Pessoa Jurídica",
    "description": "Aberta ao público em 2013, a Biblioteca Brasiliana Guita e José Mindlin foi criada em janeiro de 2005 para abrigar e integrar a coleção reunida ao longo de mais de oitenta anos pelo bibliófilo José Mindlin e sua esposa Guita. São cerca de 32 mil títulos que correspondem a 60 mil volumes aproximadamente.",
    "items": [
      "Doações em dinheiro podem ser direcionadas para a aquisição de livros e atualização das bibliotecas, bem como de equipamentos para os laboratórios e as salas de aula",
      "Contrapartidas: as empresas interessadas podem propor formas de agradecimento como a inclusão de placas na frente das salas ou laboratórios que receberem doações acima dos R$ 5 mil reais"
    ],
    "image": "https://images.adsttc.com/media/images/5747/e06a/e58e/cea2/7200/011b/slideshow/IMG_8933.jpg?1464328288",
    "id": "DBJ"
  },

  {
    "name": "Biblioteca Brasiliana",
    "tag": "BB",
    "donate": "Bens",
    "user": "Pessoa Física",
    "description": "Aberta ao público em 2013, a Biblioteca Brasiliana Guita e José Mindlin foi criada em janeiro de 2005 para abrigar e integrar a coleção reunida ao longo de mais de oitenta anos pelo bibliófilo José Mindlin e sua esposa Guita. São cerca de 32 mil títulos que correspondem a 60 mil volumes aproximadamente.",
    "items": [
      "Doações em dinheiro podem ser direcionadas para a aquisição de livros e atualização das bibliotecas, bem como de equipamentos para os laboratórios e as salas de aula"
    ],
    "image": "https://images.adsttc.com/media/images/5747/e06a/e58e/cea2/7200/011b/slideshow/IMG_8933.jpg?1464328288",
    "id": "BBF"
  },

  {
    "name": "Biblioteca Brasiliana",
    "tag": "BB",
    "donate": "Bens",
    "user": "Pessoa Jurídica",
    "description": "Aberta ao público em 2013, a Biblioteca Brasiliana Guita e José Mindlin foi criada em janeiro de 2005 para abrigar e integrar a coleção reunida ao longo de mais de oitenta anos pelo bibliófilo José Mindlin e sua esposa Guita. São cerca de 32 mil títulos que correspondem a 60 mil volumes aproximadamente.",
    "items": [
      "Doações de livros para a atualização das bibliotecas, bem como de equipamentos para os laboratórios e as salas de aula",
      "Contrapartidas: as empresas interessadas podem propor formas de agradecimento como a inclusão de placas na frente das salas ou dos laboratórios que receberem doações acima dos R$ 5 mil reais"
    ],
    "image": "https://images.adsttc.com/media/images/5747/e06a/e58e/cea2/7200/011b/slideshow/IMG_8933.jpg?1464328288",
    "id": "BBJ"
  },

  {
    "name": "Escola Politécnica",
    "tag": "EP",
    "donate": "Programa Parceiros",
    "user": "",
    "description": "O Fundo Patrimonial Amigos da Poli é uma associação que visa captar doações e aplicar os recursos oriundos desta captação em projetos na Escola Politécnica da Universidade de São Paulo, sendo sempre observadas as melhores práticas de governança e transparência e com foco na perpetuidade e manutenção do capital doado.",
    "image": "https://i.ytimg.com/vi/N_oQe9Du0Pg/maxresdefault.jpg",
    "id": "PP"
  }
]
